{
  "RAW": [
    [
      1599835649750,
      0.211804092
    ],
    [
      1599835650055,
      0.212006167
    ],
    [
      1599835650365,
      0.2120011
    ],
    [
      1599835650675,
      0.212024748
    ],
    [
      1599835650985,
      0.211489037
    ],
    [
      1599835651295,
      0.21178275300000002
    ],
    [
      1599835651385,
      0.212917104
    ],
    [
      1599835651390,
      0.212917104
    ],
    [
      1599835651535,
      0.21179710300000001
    ],
    [
      1599835651540,
      0.21179710300000001
    ],
    [
      1599835651850,
      0.21210676399999998
    ],
    [
      1599835652160,
      0.212150618
    ],
    [
      1599835652335,
      0.213188723
    ],
    [
      1599835652340,
      0.213188723
    ],
    [
      1599835652645,
      0.21303819100000002
    ],
    [
      1599835652955,
      0.212712824
    ],
    [
      1599835653265,
      0.213098735
    ],
    [
      1599835653570,
      0.212788835
    ],
    [
      1599835653875,
      0.212895572
    ],
    [
      1599835654180,
      0.212601453
    ],
    [
      1599835654485,
      0.212659851
    ],
    [
      1599835654565,
      0.213785172
    ],
    [
      1599835654570,
      0.213785172
    ],
    [
      1599835654595,
      0.212494433
    ],
    [
      1599835654600,
      0.212494433
    ],
    [
      1599835654910,
      0.21296347699999998
    ],
    [
      1599835655215,
      0.212160558
    ],
    [
      1599835655280,
      0.21328184
    ],
    [
      1599835655285,
      0.21328184
    ],
    [
      1599835655590,
      0.213204741
    ],
    [
      1599835655900,
      0.21292685
    ],
    [
      1599835656200,
      0.21263995800000002
    ],
    [
      1599835656505,
      0.212804839
    ],
    [
      1599835656815,
      0.212113455
    ],
    [
      1599835657125,
      0.212357283
    ],
    [
      1599835657430,
      0.212550148
    ],
    [
      1599835657735,
      0.212185249
    ],
    [
      1599835658045,
      0.21228919899999998
    ],
    [
      1599835658120,
      0.21123434600000002
    ],
    [
      1599835658135,
      0.21224907
    ],
    [
      1599835658445,
      0.212385625
    ],
    [
      1599835658755,
      0.212250739
    ],
    [
      1599835659020,
      0.211231947
    ],
    [
      1599835659325,
      0.211733982
    ],
    [
      1599835659635,
      0.21191653600000002
    ],
    [
      1599835659940,
      0.21188488600000002
    ],
    [
      1599835660195,
      0.212915078
    ],
    [
      1599835660290,
      0.21141101399999998
    ],
    [
      1599835660475,
      0.212443233
    ],
    [
      1599835660520,
      0.21056798100000002
    ],
    [
      1599835660535,
      0.21243076
    ],
    [
      1599835660850,
      0.212299868
    ],
    [
      1599835661150,
      0.21199493100000003
    ],
    [
      1599835661455,
      0.211954266
    ],
    [
      1599835661760,
      0.211805016
    ],
    [
      1599835661940,
      0.210738167
    ],
    [
      1599835661945,
      0.210738167
    ],
    [
      1599835661990,
      0.21182452100000002
    ],
    [
      1599835662295,
      0.21188911800000002
    ],
    [
      1599835662605,
      0.212053642
    ],
    [
      1599835662705,
      0.21098038600000002
    ],
    [
      1599835662745,
      0.21223460100000002
    ],
    [
      1599835663050,
      0.21171726300000002
    ],
    [
      1599835663350,
      0.211164415
    ],
    [
      1599835663560,
      0.212165341
    ],
    [
      1599835663590,
      0.210928664
    ],
    [
      1599835663595,
      0.210928664
    ],
    [
      1599835663785,
      0.21198113300000002
    ],
    [
      1599835663880,
      0.21080482
    ],
    [
      1599835664010,
      0.21188844699999998
    ],
    [
      1599835664015,
      0.21188844699999998
    ],
    [
      1599835664325,
      0.211158335
    ],
    [
      1599835664625,
      0.211682275
    ],
    [
      1599835664850,
      0.21028623
    ],
    [
      1599835664970,
      0.21150358
    ],
    [
      1599835664975,
      0.21150358
    ],
    [
      1599835665280,
      0.210817516
    ],
    [
      1599835665370,
      0.21212668699999998
    ],
    [
      1599835665420,
      0.21111698399999998
    ],
    [
      1599835665730,
      0.211674914
    ],
    [
      1599835666030,
      0.21187567699999998
    ],
    [
      1599835666235,
      0.21060790100000001
    ],
    [
      1599835666315,
      0.211732686
    ],
    [
      1599835666320,
      0.211732686
    ],
    [
      1599835666620,
      0.211333126
    ],
    [
      1599835666925,
      0.211490884
    ],
    [
      1599835667235,
      0.21202603
    ],
    [
      1599835667545,
      0.21139149399999999
    ],
    [
      1599835667850,
      0.211035728
    ],
    [
      1599835668160,
      0.21164859800000002
    ],
    [
      1599835668470,
      0.21163772
    ],
    [
      1599835668780,
      0.211032495
    ],
    [
      1599835669085,
      0.21138811100000002
    ],
    [
      1599835669390,
      0.211283699
    ],
    [
      1599835669700,
      0.21132285899999997
    ],
    [
      1599835670015,
      0.210708752
    ],
    [
      1599835670320,
      0.211267278
    ],
    [
      1599835670625,
      0.210638598
    ],
    [
      1599835670825,
      0.21173012300000002
    ],
    [
      1599835670865,
      0.210709825
    ],
    [
      1599835671025,
      0.211742878
    ],
    [
      1599835671030,
      0.211742878
    ],
    [
      1599835671270,
      0.210583985
    ],
    [
      1599835671275,
      0.210583985
    ],
    [
      1599835671320,
      0.2116611
    ],
    [
      1599835671325,
      0.2116611
    ],
    [
      1599835671405,
      0.21064159300000002
    ],
    [
      1599835671485,
      0.211727351
    ],
    [
      1599835671790,
      0.21109432
    ],
    [
      1599835672055,
      0.21211823800000001
    ],
    [
      1599835672360,
      0.21194303
    ],
    [
      1599835672590,
      0.21060901899999998
    ],
    [
      1599835672595,
      0.21060901899999998
    ],
    [
      1599835672630,
      0.21183759
    ],
    [
      1599835672940,
      0.21258093399999997
    ],
    [
      1599835673215,
      0.21152290699999998
    ],
    [
      1599835673295,
      0.21275571
    ],
    [
      1599835673300,
      0.21275571
    ],
    [
      1599835673325,
      0.211696446
    ],
    [
      1599835673630,
      0.21189840100000001
    ],
    [
      1599835673940,
      0.211911023
    ],
    [
      1599835674245,
      0.21128881
    ],
    [
      1599835674315,
      0.21233575
    ],
    [
      1599835674320,
      0.21233575
    ],
    [
      1599835674565,
      0.21133279800000002
    ],
    [
      1599835674610,
      0.212402195
    ],
    [
      1599835674615,
      0.212402195
    ],
    [
      1599835674695,
      0.21133592699999998
    ],
    [
      1599835674730,
      0.212436602
    ],
    [
      1599835675040,
      0.211271018
    ],
    [
      1599835675045,
      0.211271018
    ],
    [
      1599835675170,
      0.212640136
    ],
    [
      1599835675175,
      0.212640136
    ],
    [
      1599835675220,
      0.211535051
    ],
    [
      1599835675530,
      0.21222993699999998
    ],
    [
      1599835675830,
      0.211784214
    ],
    [
      1599835676140,
      0.211451828
    ],
    [
      1599835676450,
      0.212077558
    ],
    [
      1599835676560,
      0.210801467
    ],
    [
      1599835676625,
      0.21195831899999998
    ],
    [
      1599835676655,
      0.210932717
    ],
    [
      1599835676900,
      0.212121919
    ],
    [
      1599835676965,
      0.21103301600000002
    ],
    [
      1599835677280,
      0.211345717
    ],
    [
      1599835677580,
      0.211361811
    ],
    [
      1599835677890,
      0.21177078800000002
    ],
    [
      1599835678145,
      0.21063073
    ],
    [
      1599835678450,
      0.21143548199999998
    ],
    [
      1599835678760,
      0.21178771600000001
    ],
    [
      1599835679070,
      0.211314946
    ],
    [
      1599835679380,
      0.21074140100000002
    ],
    [
      1599835679685,
      0.21022661
    ],
    [
      1599835679865,
      0.211252451
    ],
    [
      1599835679870,
      0.211252451
    ],
    [
      1599835680180,
      0.21066905600000002
    ],
    [
      1599835680485,
      0.211157233
    ],
    [
      1599835680780,
      0.210033551
    ],
    [
      1599835680785,
      0.210033551
    ],
    [
      1599835681095,
      0.210510373
    ],
    [
      1599835681405,
      0.21050871899999998
    ],
    [
      1599835681715,
      0.211060971
    ],
    [
      1599835682020,
      0.21104474399999998
    ],
    [
      1599835682330,
      0.210763901
    ],
    [
      1599835682640,
      0.20990124300000002
    ],
    [
      1599835682950,
      0.20985965399999998
    ],
    [
      1599835683255,
      0.20994859899999999
    ],
    [
      1599835683560,
      0.210034475
    ],
    [
      1599835683870,
      0.209913194
    ],
    [
      1599835684175,
      0.20964488399999998
    ],
    [
      1599835684480,
      0.209237084
    ],
    [
      1599835684785,
      0.20952159199999998
    ],
    [
      1599835685080,
      0.21058343399999999
    ],
    [
      1599835685160,
      0.20946140600000002
    ],
    [
      1599835685165,
      0.20946140600000002
    ],
    [
      1599835685470,
      0.20973451399999998
    ],
    [
      1599835685775,
      0.20991632300000002
    ],
    [
      1599835686080,
      0.20994190899999998
    ],
    [
      1599835686385,
      0.210454985
    ],
    [
      1599835686695,
      0.210044786
    ],
    [
      1599835687005,
      0.21008195
    ],
    [
      1599835687310,
      0.21038849699999998
    ],
    [
      1599835687615,
      0.20988480699999998
    ],
    [
      1599835687920,
      0.209823206
    ],
    [
      1599835688230,
      0.20992755899999999
    ],
    [
      1599835688535,
      0.20962998300000002
    ],
    [
      1599835688845,
      0.20967818800000002
    ],
    [
      1599835689155,
      0.210077822
    ],
    [
      1599835689465,
      0.209930137
    ],
    [
      1599835689770,
      0.210226789
    ],
    [
      1599835690005,
      0.20910108100000002
    ],
    [
      1599835690010,
      0.20910108100000002
    ],
    [
      1599835690315,
      0.20957440100000002
    ],
    [
      1599835690625,
      0.209928662
    ],
    [
      1599835690930,
      0.20919106899999998
    ],
    [
      1599835691090,
      0.210263222
    ],
    [
      1599835691395,
      0.21057257100000001
    ],
    [
      1599835691450,
      0.21169202
    ],
    [
      1599835691455,
      0.21169202
    ],
    [
      1599835691720,
      0.210373268
    ],
    [
      1599835691940,
      0.21144449699999998
    ],
    [
      1599835691945,
      0.21144449699999998
    ],
    [
      1599835691980,
      0.210256174
    ],
    [
      1599835692285,
      0.20952472100000002
    ],
    [
      1599835692595,
      0.21031861
    ],
    [
      1599835692900,
      0.20953680600000002
    ],
    [
      1599835693105,
      0.21062852399999998
    ],
    [
      1599835693280,
      0.20945707
    ],
    [
      1599835693285,
      0.20945707
    ],
    [
      1599835693590,
      0.209178969
    ],
    [
      1599835693655,
      0.21023119999999998
    ],
    [
      1599835693960,
      0.210329652
    ],
    [
      1599835694265,
      0.209885165
    ],
    [
      1599835694575,
      0.20998941399999999
    ],
    [
      1599835694875,
      0.210324153
    ],
    [
      1599835695025,
      0.20922584800000002
    ],
    [
      1599835695030,
      0.20922584800000002
    ],
    [
      1599835695130,
      0.21024510300000002
    ],
    [
      1599835695290,
      0.209061876
    ],
    [
      1599835695295,
      0.209061876
    ],
    [
      1599835695600,
      0.209309042
    ],
    [
      1599835695905,
      0.209501117
    ],
    [
      1599835696215,
      0.209484205
    ],
    [
      1599835696525,
      0.209026545
    ],
    [
      1599835696835,
      0.209493741
    ],
    [
      1599835697140,
      0.209647238
    ],
    [
      1599835697295,
      0.20860973
    ],
    [
      1599835697300,
      0.20860973
    ],
    [
      1599835697605,
      0.209449336
    ],
    [
      1599835697670,
      0.2083565
    ],
    [
      1599835697675,
      0.2083565
    ],
    [
      1599835697900,
      0.209528401
    ],
    [
      1599835697905,
      0.209528401
    ],
    [
      1599835697930,
      0.208369583
    ],
    [
      1599835697935,
      0.208369583
    ],
    [
      1599835698240,
      0.208750144
    ],
    [
      1599835698550,
      0.208909512
    ],
    [
      1599835698855,
      0.20871986399999998
    ],
    [
      1599835699165,
      0.20851163600000003
    ],
    [
      1599835699470,
      0.208699897
    ],
    [
      1599835699780,
      0.20915229600000002
    ],
    [
      1599835700090,
      0.20909445
    ],
    [
      1599835700325,
      0.20807714800000002
    ],
    [
      1599835700330,
      0.20807714800000002
    ],
    [
      1599835700640,
      0.20829172399999998
    ],
    [
      1599835700950,
      0.20841391399999998
    ],
    [
      1599835701255,
      0.208548546
    ],
    [
      1599835701560,
      0.208604753
    ],
    [
      1599835701870,
      0.20771847699999998
    ],
    [
      1599835702170,
      0.20838429
    ],
    [
      1599835702475,
      0.208136961
    ],
    [
      1599835702780,
      0.208163276
    ],
    [
      1599835703085,
      0.207374215
    ],
    [
      1599835703395,
      0.20770213
    ],
    [
      1599835703700,
      0.20731674100000003
    ],
    [
      1599835704005,
      0.2075212
    ],
    [
      1599835704315,
      0.20810198800000002
    ],
    [
      1599835704620,
      0.207426608
    ],
    [
      1599835704930,
      0.20764246600000003
    ],
    [
      1599835705240,
      0.207261533
    ],
    [
      1599835705540,
      0.206530198
    ],
    [
      1599835705850,
      0.207131654
    ],
    [
      1599835706160,
      0.207556888
    ],
    [
      1599835706465,
      0.207422391
    ],
    [
      1599835706635,
      0.206336975
    ],
    [
      1599835706640,
      0.206336975
    ],
    [
      1599835706785,
      0.207472607
    ],
    [
      1599835707095,
      0.20709756
    ],
    [
      1599835707405,
      0.206979603
    ],
    [
      1599835707710,
      0.206820413
    ],
    [
      1599835708015,
      0.206861481
    ],
    [
      1599835708320,
      0.207130507
    ],
    [
      1599835708635,
      0.207013637
    ],
    [
      1599835708935,
      0.206744596
    ],
    [
      1599835709240,
      0.20693133800000002
    ],
    [
      1599835709545,
      0.206801832
    ],
    [
      1599835709850,
      0.20699670899999997
    ],
    [
      1599835710135,
      0.205064222
    ],
    [
      1599835710165,
      0.20658946
    ],
    [
      1599835710470,
      0.206009209
    ],
    [
      1599835710660,
      0.207057253
    ],
    [
      1599835710800,
      0.206006825
    ],
    [
      1599835710830,
      0.20806555399999999
    ],
    [
      1599835710835,
      0.20806555399999999
    ],
    [
      1599835711140,
      0.207905665
    ],
    [
      1599835711445,
      0.207569599
    ],
    [
      1599835711750,
      0.20711907699999998
    ],
    [
      1599835712060,
      0.207262814
    ],
    [
      1599835712365,
      0.207311496
    ],
    [
      1599835712670,
      0.207276657
    ],
    [
      1599835712975,
      0.20652651800000002
    ],
    [
      1599835713115,
      0.20757015
    ],
    [
      1599835713120,
      0.20757015
    ],
    [
      1599835713170,
      0.206471369
    ],
    [
      1599835713215,
      0.207697317
    ],
    [
      1599835713220,
      0.207697317
    ],
    [
      1599835713325,
      0.20666177600000002
    ],
    [
      1599835713630,
      0.20733144899999997
    ],
    [
      1599835713935,
      0.20708118399999997
    ],
    [
      1599835714240,
      0.20672509100000003
    ],
    [
      1599835714550,
      0.206987321
    ],
    [
      1599835714600,
      0.20596854399999998
    ],
    [
      1599835714605,
      0.20596854399999998
    ],
    [
      1599835714670,
      0.20724061100000002
    ],
    [
      1599835714675,
      0.20724061100000002
    ],
    [
      1599835714980,
      0.206831276
    ],
    [
      1599835715285,
      0.206576407
    ],
    [
      1599835715590,
      0.206861451
    ],
    [
      1599835715900,
      0.20685832199999998
    ],
    [
      1599835716205,
      0.206472039
    ],
    [
      1599835716515,
      0.206080437
    ],
    [
      1599835716820,
      0.20654086800000002
    ],
    [
      1599835717130,
      0.206251577
    ],
    [
      1599835717190,
      0.205070153
    ],
    [
      1599835717195,
      0.205070153
    ],
    [
      1599835717220,
      0.206243858
    ],
    [
      1599835717525,
      0.20575282
    ],
    [
      1599835717830,
      0.205799609
    ],
    [
      1599835718135,
      0.20603019
    ],
    [
      1599835718440,
      0.205545455
    ],
    [
      1599835718750,
      0.20567870100000002
    ],
    [
      1599835719060,
      0.20574365600000002
    ],
    [
      1599835719365,
      0.205743685
    ],
    [
      1599835719665,
      0.205565155
    ],
    [
      1599835719975,
      0.204988405
    ],
    [
      1599835720280,
      0.20454047600000003
    ],
    [
      1599835720315,
      0.205786914
    ],
    [
      1599835720625,
      0.20551545899999998
    ],
    [
      1599835720940,
      0.205342844
    ],
    [
      1599835721240,
      0.205419078
    ],
    [
      1599835721555,
      0.205132499
    ],
    [
      1599835721855,
      0.204751372
    ],
    [
      1599835722170,
      0.205129758
    ],
    [
      1599835722475,
      0.204914063
    ],
    [
      1599835722780,
      0.205243468
    ],
    [
      1599835722815,
      0.204063475
    ],
    [
      1599835723040,
      0.20534560100000002
    ],
    [
      1599835723045,
      0.20534560100000002
    ],
    [
      1599835723320,
      0.204079121
    ],
    [
      1599835723325,
      0.204079121
    ],
    [
      1599835723635,
      0.204652742
    ],
    [
      1599835723945,
      0.204753771
    ],
    [
      1599835724250,
      0.20476402300000002
    ],
    [
      1599835724400,
      0.20360525
    ],
    [
      1599835724405,
      0.20360525
    ],
    [
      1599835724430,
      0.204692855
    ],
    [
      1599835724435,
      0.204692855
    ],
    [
      1599835724740,
      0.203732222
    ],
    [
      1599835725045,
      0.204318747
    ],
    [
      1599835725350,
      0.204039007
    ],
    [
      1599835725655,
      0.204348594
    ],
    [
      1599835725960,
      0.20386657100000002
    ],
    [
      1599835726270,
      0.20392158600000002
    ],
    [
      1599835726575,
      0.203916252
    ],
    [
      1599835726880,
      0.203350127
    ],
    [
      1599835727185,
      0.203775465
    ],
    [
      1599835727495,
      0.203820556
    ],
    [
      1599835727605,
      0.202571556
    ],
    [
      1599835727610,
      0.202571556
    ],
    [
      1599835727705,
      0.203614712
    ],
    [
      1599835727710,
      0.203614712
    ],
    [
      1599835728015,
      0.203478262
    ],
    [
      1599835728320,
      0.203105614
    ],
    [
      1599835728630,
      0.203297287
    ],
    [
      1599835728935,
      0.203302339
    ],
    [
      1599835729240,
      0.20311205100000002
    ],
    [
      1599835729545,
      0.202868402
    ],
    [
      1599835729710,
      0.203885153
    ],
    [
      1599835729715,
      0.203885153
    ],
    [
      1599835729780,
      0.202855691
    ],
    [
      1599835730085,
      0.203148305
    ],
    [
      1599835730390,
      0.20312660899999999
    ],
    [
      1599835730550,
      0.204216957
    ],
    [
      1599835730555,
      0.204216957
    ],
    [
      1599835730825,
      0.20299021899999997
    ],
    [
      1599835730830,
      0.20299021899999997
    ],
    [
      1599835731140,
      0.20342287399999998
    ],
    [
      1599835731450,
      0.20325635399999997
    ],
    [
      1599835731630,
      0.20225425100000002
    ],
    [
      1599835731780,
      0.20340484399999997
    ],
    [
      1599835731890,
      0.204535425
    ],
    [
      1599835731940,
      0.203503847
    ],
    [
      1599835732105,
      0.20456038399999998
    ],
    [
      1599835732215,
      0.203538567
    ],
    [
      1599835732525,
      0.202875406
    ],
    [
      1599835732835,
      0.202896506
    ],
    [
      1599835733140,
      0.203229457
    ],
    [
      1599835733445,
      0.203471452
    ],
    [
      1599835733755,
      0.20289720600000002
    ],
    [
      1599835734060,
      0.202886432
    ],
    [
      1599835734365,
      0.20294421899999998
    ],
    [
      1599835734675,
      0.202927262
    ],
    [
      1599835734980,
      0.20233930600000002
    ],
    [
      1599835735035,
      0.20339876399999998
    ],
    [
      1599835735040,
      0.20339876399999998
    ],
    [
      1599835735180,
      0.20237888399999998
    ],
    [
      1599835735185,
      0.20237888399999998
    ],
    [
      1599835735490,
      0.20244862100000002
    ],
    [
      1599835735800,
      0.20226055399999998
    ],
    [
      1599835736105,
      0.201820284
    ],
    [
      1599835736410,
      0.202658057
    ],
    [
      1599835736650,
      0.20127286
    ],
    [
      1599835736655,
      0.20127286
    ],
    [
      1599835736850,
      0.202365994
    ],
    [
      1599835736855,
      0.202365994
    ],
    [
      1599835737030,
      0.201365933
    ],
    [
      1599835737335,
      0.20123247800000002
    ],
    [
      1599835737640,
      0.20159620000000003
    ],
    [
      1599835737955,
      0.201296613
    ],
    [
      1599835738260,
      0.201315016
    ],
    [
      1599835738575,
      0.201517433
    ],
    [
      1599835738635,
      0.200433135
    ],
    [
      1599835738640,
      0.200433135
    ],
    [
      1599835738950,
      0.200818136
    ],
    [
      1599835739255,
      0.201144502
    ],
    [
      1599835739560,
      0.20101889999999997
    ],
    [
      1599835739865,
      0.20115730199999998
    ],
    [
      1599835740170,
      0.200687289
    ],
    [
      1599835740480,
      0.20073513699999998
    ],
    [
      1599835740790,
      0.20032778399999998
    ],
    [
      1599835741095,
      0.20027396100000003
    ],
    [
      1599835741400,
      0.200769365
    ],
    [
      1599835741705,
      0.200167939
    ],
    [
      1599835742010,
      0.20038953399999998
    ],
    [
      1599835742315,
      0.200603008
    ],
    [
      1599835742625,
      0.20051462899999997
    ],
    [
      1599835742935,
      0.200028643
    ],
    [
      1599835743245,
      0.199895039
    ],
    [
      1599835743550,
      0.200397998
    ],
    [
      1599835743855,
      0.200207517
    ],
    [
      1599835744170,
      0.199720576
    ],
    [
      1599835744475,
      0.20018298899999998
    ],
    [
      1599835744780,
      0.199914366
    ],
    [
      1599835745085,
      0.200172737
    ],
    [
      1599835745390,
      0.200042456
    ],
    [
      1599835745700,
      0.200378671
    ],
    [
      1599835746005,
      0.200310215
    ],
    [
      1599835746315,
      0.19955053899999997
    ],
    [
      1599835746470,
      0.20069688600000002
    ],
    [
      1599835746530,
      0.19968473899999997
    ],
    [
      1599835746535,
      0.19968473899999997
    ],
    [
      1599835746845,
      0.19928070899999997
    ],
    [
      1599835747155,
      0.199821427
    ],
    [
      1599835747465,
      0.19952943899999998
    ],
    [
      1599835747800,
      0.199919328
    ],
    [
      1599835748005,
      0.19888232600000003
    ],
    [
      1599835748010,
      0.19888232600000003
    ],
    [
      1599835748060,
      0.19989833199999998
    ],
    [
      1599835748125,
      0.198818281
    ],
    [
      1599835748350,
      0.19987590600000002
    ],
    [
      1599835748355,
      0.19987590600000002
    ],
    [
      1599835748470,
      0.19883331699999998
    ],
    [
      1599835748500,
      0.19998264300000002
    ],
    [
      1599835748565,
      0.198912874
    ],
    [
      1599835748875,
      0.199454114
    ],
    [
      1599835749185,
      0.199171796
    ],
    [
      1599835749495,
      0.199161872
    ],
    [
      1599835749795,
      0.199285164
    ],
    [
      1599835749900,
      0.200431317
    ],
    [
      1599835749905,
      0.200431317
    ],
    [
      1599835750210,
      0.200299472
    ],
    [
      1599835750520,
      0.20020057300000002
    ],
    [
      1599835750690,
      0.198954105
    ],
    [
      1599835750695,
      0.198954105
    ],
    [
      1599835750725,
      0.200001225
    ],
    [
      1599835750835,
      0.198965266
    ],
    [
      1599835750840,
      0.198965266
    ],
    [
      1599835750985,
      0.20004484100000003
    ],
    [
      1599835751075,
      0.198898718
    ],
    [
      1599835751155,
      0.200151727
    ],
    [
      1599835751350,
      0.19914273899999999
    ],
    [
      1599835751355,
      0.19914273899999999
    ],
    [
      1599835751560,
      0.200225562
    ],
    [
      1599835751565,
      0.200225562
    ],
    [
      1599835751810,
      0.199197382
    ],
    [
      1599835752115,
      0.199585512
    ],
    [
      1599835752220,
      0.19837147
    ],
    [
      1599835752265,
      0.199588999
    ],
    [
      1599835752270,
      0.199588999
    ],
    [
      1599835752370,
      0.200730532
    ],
    [
      1599835752400,
      0.201831385
    ],
    [
      1599835752405,
      0.201831385
    ],
    [
      1599835752430,
      0.20350126899999998
    ],
    [
      1599835752435,
      0.20350126899999998
    ],
    [
      1599835752465,
      0.204542771
    ],
    [
      1599835752530,
      0.205729723
    ],
    [
      1599835752580,
      0.204543442
    ],
    [
      1599835752665,
      0.203374654
    ],
    [
      1599835752760,
      0.204591379
    ],
    [
      1599835752855,
      0.20575310300000002
    ],
    [
      1599835752860,
      0.20575310300000002
    ],
    [
      1599835753095,
      0.204341158
    ],
    [
      1599835753240,
      0.203157902
    ],
    [
      1599835753335,
      0.20207707600000002
    ],
    [
      1599835753545,
      0.200515583
    ],
    [
      1599835753550,
      0.200515583
    ],
    [
      1599835753760,
      0.199411333
    ],
    [
      1599835754065,
      0.19898843800000002
    ],
    [
      1599835754370,
      0.19898355
    ],
    [
      1599835754675,
      0.198648989
    ],
    [
      1599835754985,
      0.199214786
    ],
    [
      1599835755295,
      0.19967328
    ],
    [
      1599835755470,
      0.198484465
    ],
    [
      1599835755475,
      0.198484465
    ],
    [
      1599835755775,
      0.198579788
    ],
    [
      1599835755845,
      0.197052345
    ],
    [
      1599835755850,
      0.197052345
    ],
    [
      1599835755990,
      0.195995659
    ],
    [
      1599835755995,
      0.195995659
    ],
    [
      1599835756045,
      0.194287226
    ],
    [
      1599835756305,
      0.192736685
    ],
    [
      1599835756385,
      0.191698581
    ],
    [
      1599835756390,
      0.191698581
    ],
    [
      1599835756690,
      0.191430271
    ],
    [
      1599835756715,
      0.19038173600000002
    ],
    [
      1599835757025,
      0.190979034
    ],
    [
      1599835757320,
      0.19203002800000002
    ],
    [
      1599835757510,
      0.19305028
    ],
    [
      1599835757515,
      0.19305028
    ],
    [
      1599835757825,
      0.192889825
    ],
    [
      1599835758135,
      0.19228489699999998
    ],
    [
      1599835758445,
      0.191999972
    ],
    [
      1599835758625,
      0.190804943
    ],
    [
      1599835758630,
      0.190804943
    ],
    [
      1599835758930,
      0.190540493
    ],
    [
      1599835759120,
      0.191564977
    ],
    [
      1599835759125,
      0.191564977
    ],
    [
      1599835759350,
      0.19283956300000002
    ],
    [
      1599835759565,
      0.193868473
    ],
    [
      1599835759845,
      0.19488945600000002
    ],
    [
      1599835760155,
      0.19509924899999997
    ],
    [
      1599835760245,
      0.196434125
    ],
    [
      1599835760555,
      0.197385445
    ],
    [
      1599835760795,
      0.19846031100000003
    ],
    [
      1599835760800,
      0.19846031100000003
    ],
    [
      1599835761005,
      0.19964078100000002
    ],
    [
      1599835761145,
      0.200682312
    ],
    [
      1599835761150,
      0.200682312
    ],
    [
      1599835761370,
      0.201979548
    ],
    [
      1599835761375,
      0.201979548
    ],
    [
      1599835761500,
      0.20307941699999998
    ],
    [
      1599835761505,
      0.20307941699999998
    ],
    [
      1599835761585,
      0.205323339
    ],
    [
      1599835761590,
      0.205323339
    ],
    [
      1599835761700,
      0.206442595
    ],
    [
      1599835761730,
      0.20745328100000002
    ],
    [
      1599835761735,
      0.20745328100000002
    ],
    [
      1599835761880,
      0.20866549
    ],
    [
      1599835762040,
      0.209943011
    ],
    [
      1599835762045,
      0.209943011
    ],
    [
      1599835762170,
      0.211215541
    ],
    [
      1599835762175,
      0.211215541
    ],
    [
      1599835762470,
      0.210121155
    ],
    [
      1599835762660,
      0.208974123
    ],
    [
      1599835762665,
      0.208974123
    ],
    [
      1599835762855,
      0.207645595
    ],
    [
      1599835762860,
      0.207645595
    ],
    [
      1599835763085,
      0.206601411
    ],
    [
      1599835763090,
      0.206601411
    ],
    [
      1599835763250,
      0.205249354
    ],
    [
      1599835763545,
      0.204241797
    ],
    [
      1599835763770,
      0.2030285
    ],
    [
      1599835763775,
      0.2030285
    ],
    [
      1599835764080,
      0.20290243600000002
    ],
    [
      1599835764390,
      0.202492788
    ],
    [
      1599835764525,
      0.20138236899999998
    ],
    [
      1599835764530,
      0.20138236899999998
    ],
    [
      1599835764840,
      0.201258689
    ],
    [
      1599835765150,
      0.20076122899999999
    ],
    [
      1599835765455,
      0.200566009
    ],
    [
      1599835765760,
      0.200595453
    ],
    [
      1599835766065,
      0.199596003
    ],
    [
      1599835766370,
      0.199862465
    ],
    [
      1599835766675,
      0.20017674600000002
    ],
    [
      1599835766885,
      0.19892779
    ],
    [
      1599835766890,
      0.19892779
    ],
    [
      1599835767195,
      0.19943368399999997
    ],
    [
      1599835767505,
      0.198644564
    ],
    [
      1599835767810,
      0.198297113
    ],
    [
      1599835768115,
      0.19853138899999997
    ],
    [
      1599835768425,
      0.19847931
    ],
    [
      1599835768735,
      0.197818458
    ],
    [
      1599835768815,
      0.198917478
    ],
    [
      1599835768820,
      0.198917478
    ],
    [
      1599835768995,
      0.197895199
    ],
    [
      1599835769080,
      0.19916813100000003
    ],
    [
      1599835769085,
      0.19916813100000003
    ],
    [
      1599835769140,
      0.198126897
    ],
    [
      1599835769145,
      0.198126897
    ],
    [
      1599835769450,
      0.197818518
    ],
    [
      1599835769635,
      0.199052736
    ],
    [
      1599835769685,
      0.19797857100000002
    ],
    [
      1599835769690,
      0.19797857100000002
    ],
    [
      1599835769995,
      0.19810977600000002
    ],
    [
      1599835770300,
      0.198386922
    ],
    [
      1599835770455,
      0.197257668
    ],
    [
      1599835770625,
      0.19827435899999998
    ],
    [
      1599835770930,
      0.197676212
    ],
    [
      1599835770950,
      0.19875995800000001
    ],
    [
      1599835770955,
      0.19875995800000001
    ],
    [
      1599835771130,
      0.197430894
    ],
    [
      1599835771210,
      0.198487043
    ],
    [
      1599835771215,
      0.198487043
    ],
    [
      1599835771520,
      0.198325455
    ],
    [
      1599835771825,
      0.197705939
    ],
    [
      1599835771895,
      0.19881726800000002
    ],
    [
      1599835771900,
      0.19881726800000002
    ],
    [
      1599835772095,
      0.197707683
    ],
    [
      1599835772100,
      0.197707683
    ],
    [
      1599835772150,
      0.19872278
    ],
    [
      1599835772455,
      0.19907039399999998
    ],
    [
      1599835772555,
      0.19798260899999998
    ],
    [
      1599835772865,
      0.198031008
    ],
    [
      1599835773175,
      0.198387295
    ],
    [
      1599835773485,
      0.19853903399999998
    ],
    [
      1599835773795,
      0.198269695
    ],
    [
      1599835774100,
      0.19840993
    ],
    [
      1599835774410,
      0.19843219199999998
    ],
    [
      1599835774715,
      0.198784903
    ],
    [
      1599835774750,
      0.197377041
    ],
    [
      1599835774755,
      0.197377041
    ],
    [
      1599835774770,
      0.19876804899999997
    ],
    [
      1599835775075,
      0.19873197399999998
    ],
    [
      1599835775205,
      0.197658539
    ],
    [
      1599835775210,
      0.197658539
    ],
    [
      1599835775280,
      0.198923737
    ],
    [
      1599835775580,
      0.19898244699999998
    ],
    [
      1599835775890,
      0.199295655
    ],
    [
      1599835776200,
      0.199099302
    ],
    [
      1599835776505,
      0.19930683100000002
    ],
    [
      1599835776580,
      0.19827669899999997
    ],
    [
      1599835776890,
      0.19888910699999998
    ],
    [
      1599835777195,
      0.199008942
    ],
    [
      1599835777505,
      0.19944122399999997
    ],
    [
      1599835777815,
      0.19899992600000002
    ],
    [
      1599835777885,
      0.200047478
    ],
    [
      1599835777890,
      0.200047478
    ],
    [
      1599835778190,
      0.199217632
    ],
    [
      1599835778495,
      0.19903636
    ],
    [
      1599835778805,
      0.199767694
    ],
    [
      1599835778900,
      0.198602051
    ],
    [
      1599835779100,
      0.200053617
    ],
    [
      1599835779390,
      0.198922813
    ],
    [
      1599835779615,
      0.200012818
    ],
    [
      1599835779670,
      0.198874563
    ],
    [
      1599835779855,
      0.199916363
    ],
    [
      1599835779975,
      0.19887000300000002
    ],
    [
      1599835779980,
      0.19887000300000002
    ],
    [
      1599835780010,
      0.199883103
    ],
    [
      1599835780320,
      0.199676231
    ],
    [
      1599835780630,
      0.199720725
    ],
    [
      1599835780930,
      0.19989337
    ],
    [
      1599835781245,
      0.20053786
    ],
    [
      1599835781550,
      0.20097823399999998
    ],
    [
      1599835781865,
      0.20051007
    ],
    [
      1599835782170,
      0.200943455
    ],
    [
      1599835782475,
      0.200856328
    ],
    [
      1599835782785,
      0.201400265
    ],
    [
      1599835783090,
      0.20140463100000003
    ],
    [
      1599835783395,
      0.20153400300000002
    ],
    [
      1599835783700,
      0.201335624
    ],
    [
      1599835784010,
      0.20170681199999999
    ],
    [
      1599835784315,
      0.201267466
    ],
    [
      1599835784620,
      0.201653257
    ],
    [
      1599835784925,
      0.201488033
    ],
    [
      1599835785175,
      0.20251506600000002
    ],
    [
      1599835785180,
      0.20251506600000002
    ],
    [
      1599835785280,
      0.201208279
    ],
    [
      1599835785310,
      0.202254847
    ],
    [
      1599835785315,
      0.202254847
    ],
    [
      1599835785615,
      0.20250152100000002
    ],
    [
      1599835785920,
      0.202746838
    ],
    [
      1599835786230,
      0.203223139
    ],
    [
      1599835786270,
      0.20199941100000002
    ],
    [
      1599835786320,
      0.20324409
    ],
    [
      1599835786400,
      0.20217460399999998
    ],
    [
      1599835786405,
      0.20217460399999998
    ],
    [
      1599835786470,
      0.203486726
    ],
    [
      1599835786550,
      0.202307105
    ],
    [
      1599835786555,
      0.202307105
    ],
    [
      1599835786860,
      0.202974215
    ],
    [
      1599835787165,
      0.203461096
    ],
    [
      1599835787480,
      0.203157559
    ],
    [
      1599835787785,
      0.203142047
    ],
    [
      1599835788100,
      0.203247309
    ],
    [
      1599835788310,
      0.204313025
    ],
    [
      1599835788435,
      0.203307509
    ],
    [
      1599835788500,
      0.20431596
    ],
    [
      1599835788810,
      0.20379042600000002
    ],
    [
      1599835788875,
      0.20483174899999998
    ],
    [
      1599835788880,
      0.20483174899999998
    ],
    [
      1599835789115,
      0.20351856899999998
    ],
    [
      1599835789425,
      0.20419707899999998
    ],
    [
      1599835789725,
      0.20399403600000002
    ],
    [
      1599835790035,
      0.20418614100000002
    ],
    [
      1599835790345,
      0.20392912600000002
    ],
    [
      1599835790660,
      0.20436748899999999
    ],
    [
      1599835790965,
      0.204358846
    ],
    [
      1599835791275,
      0.204665139
    ],
    [
      1599835791455,
      0.20359236
    ],
    [
      1599835791460,
      0.20359236
    ],
    [
      1599835791560,
      0.205117226
    ],
    [
      1599835791860,
      0.204518765
    ],
    [
      1599835792170,
      0.204585567
    ],
    [
      1599835792475,
      0.20447129
    ],
    [
      1599835792775,
      0.205123201
    ],
    [
      1599835793085,
      0.20507656
    ],
    [
      1599835793395,
      0.20507067399999998
    ],
    [
      1599835793710,
      0.204843387
    ],
    [
      1599835794020,
      0.204835474
    ],
    [
      1599835794320,
      0.205356464
    ],
    [
      1599835794630,
      0.205819666
    ],
    [
      1599835794935,
      0.205891624
    ],
    [
      1599835795240,
      0.206269428
    ],
    [
      1599835795360,
      0.20520941899999998
    ],
    [
      1599835795365,
      0.20520941899999998
    ],
    [
      1599835795530,
      0.206246421
    ],
    [
      1599835795830,
      0.205768317
    ],
    [
      1599835796135,
      0.205790222
    ],
    [
      1599835796240,
      0.206937402
    ],
    [
      1599835796320,
      0.20576924100000002
    ],
    [
      1599835796465,
      0.206819072
    ],
    [
      1599835796470,
      0.206819072
    ],
    [
      1599835796545,
      0.205793723
    ],
    [
      1599835796550,
      0.205793723
    ],
    [
      1599835796650,
      0.20694850399999998
    ],
    [
      1599835796655,
      0.20694850399999998
    ],
    [
      1599835796960,
      0.206120372
    ],
    [
      1599835797265,
      0.206692144
    ],
    [
      1599835797570,
      0.20656222100000002
    ],
    [
      1599835797875,
      0.206002042
    ],
    [
      1599835798180,
      0.20619489300000002
    ],
    [
      1599835798485,
      0.206733361
    ],
    [
      1599835798795,
      0.207627311
    ],
    [
      1599835798820,
      0.206594974
    ],
    [
      1599835798825,
      0.206594974
    ],
    [
      1599835799130,
      0.20679888100000002
    ],
    [
      1599835799435,
      0.20655393600000002
    ],
    [
      1599835799740,
      0.20671913
    ],
    [
      1599835799895,
      0.20816612199999998
    ],
    [
      1599835799900,
      0.20816612199999998
    ],
    [
      1599835799935,
      0.206963703
    ],
    [
      1599835799965,
      0.205858856
    ],
    [
      1599835799970,
      0.205858856
    ],
    [
      1599835799980,
      0.20692583899999997
    ],
    [
      1599835799985,
      0.20692583899999997
    ],
    [
      1599835800085,
      0.208021745
    ],
    [
      1599835800125,
      0.206945375
    ],
    [
      1599835800130,
      0.206945375
    ],
    [
      1599835800175,
      0.208104283
    ],
    [
      1599835800180,
      0.208104283
    ],
    [
      1599835800205,
      0.20574457899999998
    ],
    [
      1599835800210,
      0.20574457899999998
    ],
    [
      1599835800220,
      0.207050994
    ],
    [
      1599835800225,
      0.207050994
    ],
    [
      1599835800245,
      0.208514035
    ],
    [
      1599835800290,
      0.206694171
    ],
    [
      1599835800295,
      0.206694171
    ],
    [
      1599835800325,
      0.20795919
    ],
    [
      1599835800330,
      0.20795919
    ],
    [
      1599835800405,
      0.206246972
    ],
    [
      1599835800410,
      0.206246972
    ],
    [
      1599835800435,
      0.207905993
    ],
    [
      1599835800440,
      0.207905993
    ],
    [
      1599835800500,
      0.20655854
    ],
    [
      1599835800505,
      0.20655854
    ],
    [
      1599835800810,
      0.20697279300000002
    ],
    [
      1599835801115,
      0.20694242399999999
    ],
    [
      1599835801380,
      0.20798751699999998
    ],
    [
      1599835801385,
      0.20798751699999998
    ],
    [
      1599835801575,
      0.206971139
    ],
    [
      1599835801580,
      0.206971139
    ],
    [
      1599835801620,
      0.208163634
    ],
    [
      1599835801720,
      0.206966907
    ],
    [
      1599835801725,
      0.206966907
    ],
    [
      1599835802035,
      0.20757529100000002
    ],
    [
      1599835802340,
      0.20789164300000001
    ],
    [
      1599835802650,
      0.20772638899999998
    ],
    [
      1599835802960,
      0.207261533
    ],
    [
      1599835803265,
      0.207496718
    ],
    [
      1599835803570,
      0.20733863100000002
    ],
    [
      1599835803875,
      0.207471684
    ],
    [
      1599835804180,
      0.20842275
    ],
    [
      1599835804245,
      0.20741739899999997
    ],
    [
      1599835804250,
      0.20741739899999997
    ],
    [
      1599835804405,
      0.20859023899999998
    ],
    [
      1599835804410,
      0.20859023899999998
    ],
    [
      1599835804720,
      0.20805211399999998
    ],
    [
      1599835805025,
      0.20855119800000002
    ],
    [
      1599835805115,
      0.20754769399999998
    ],
    [
      1599835805145,
      0.208548039
    ],
    [
      1599835805210,
      0.207469299
    ],
    [
      1599835805215,
      0.207469299
    ],
    [
      1599835805520,
      0.20804292
    ],
    [
      1599835805825,
      0.207951263
    ],
    [
      1599835805845,
      0.20915007600000002
    ],
    [
      1599835805850,
      0.20915007600000002
    ],
    [
      1599835805895,
      0.20796065
    ],
    [
      1599835805900,
      0.20796065
    ],
    [
      1599835806210,
      0.20802083600000001
    ],
    [
      1599835806370,
      0.20642180699999998
    ],
    [
      1599835806375,
      0.20642180699999998
    ],
    [
      1599835806410,
      0.208335713
    ],
    [
      1599835806720,
      0.208486602
    ],
    [
      1599835807030,
      0.208610281
    ],
    [
      1599835807335,
      0.20798899199999998
    ],
    [
      1599835807640,
      0.207935438
    ],
    [
      1599835807950,
      0.208002985
    ],
    [
      1599835808260,
      0.208961084
    ],
    [
      1599835808570,
      0.209390193
    ],
    [
      1599835808880,
      0.209345475
    ],
    [
      1599835809190,
      0.20965214100000001
    ],
    [
      1599835809330,
      0.20857216399999998
    ],
    [
      1599835809425,
      0.209632188
    ],
    [
      1599835809430,
      0.209632188
    ],
    [
      1599835809475,
      0.208370298
    ],
    [
      1599835809480,
      0.208370298
    ],
    [
      1599835809505,
      0.209614888
    ],
    [
      1599835809510,
      0.209614888
    ],
    [
      1599835809815,
      0.209924981
    ],
    [
      1599835810120,
      0.209432885
    ],
    [
      1599835810430,
      0.20922088600000002
    ],
    [
      1599835810735,
      0.208991006
    ],
    [
      1599835810815,
      0.210005492
    ],
    [
      1599835810820,
      0.210005492
    ],
    [
      1599835810960,
      0.20900358300000002
    ],
    [
      1599835810965,
      0.20900358300000002
    ],
    [
      1599835811000,
      0.210185558
    ],
    [
      1599835811305,
      0.209818244
    ],
    [
      1599835811615,
      0.210036129
    ],
    [
      1599835811925,
      0.210469514
    ],
    [
      1599835812110,
      0.208851352
    ],
    [
      1599835812145,
      0.21042056399999998
    ],
    [
      1599835812240,
      0.209232852
    ],
    [
      1599835812245,
      0.209232852
    ],
    [
      1599835812320,
      0.210412845
    ],
    [
      1599835812325,
      0.210412845
    ],
    [
      1599835812355,
      0.209384084
    ],
    [
      1599835812660,
      0.210226789
    ],
    [
      1599835812970,
      0.210576624
    ],
    [
      1599835813280,
      0.210309595
    ],
    [
      1599835813590,
      0.210956275
    ],
    [
      1599835813895,
      0.21132285899999997
    ],
    [
      1599835814200,
      0.211161286
    ],
    [
      1599835814510,
      0.210587114
    ],
    [
      1599835814810,
      0.211685404
    ],
    [
      1599835814880,
      0.21052730100000003
    ],
    [
      1599835814970,
      0.21156117300000002
    ],
    [
      1599835814975,
      0.21156117300000002
    ],
    [
      1599835815285,
      0.21127685899999998
    ],
    [
      1599835815595,
      0.210459128
    ],
    [
      1599835815620,
      0.211908966
    ],
    [
      1599835815625,
      0.211908966
    ],
    [
      1599835815835,
      0.21084328
    ],
    [
      1599835815840,
      0.21084328
    ],
    [
      1599835816150,
      0.210943341
    ],
    [
      1599835816460,
      0.21105675399999999
    ],
    [
      1599835816620,
      0.21223840100000002
    ],
    [
      1599835816730,
      0.211189851
    ],
    [
      1599835817045,
      0.211532831
    ],
    [
      1599835817355,
      0.21219956899999998
    ],
    [
      1599835817655,
      0.212024137
    ],
    [
      1599835817965,
      0.21231053800000002
    ],
    [
      1599835818270,
      0.213051081
    ],
    [
      1599835818580,
      0.212386429
    ],
    [
      1599835818745,
      0.213570774
    ],
    [
      1599835818810,
      0.211846232
    ],
    [
      1599835818890,
      0.212947652
    ],
    [
      1599835819195,
      0.21274521899999999
    ],
    [
      1599835819505,
      0.212976143
    ],
    [
      1599835819810,
      0.21280393
    ],
    [
      1599835820115,
      0.21323820899999998
    ],
    [
      1599835820385,
      0.212145105
    ],
    [
      1599835820460,
      0.213328868
    ],
    [
      1599835820465,
      0.213328868
    ],
    [
      1599835820525,
      0.21217370000000002
    ],
    [
      1599835820530,
      0.21217370000000002
    ],
    [
      1599835820560,
      0.213442877
    ],
    [
      1599835820565,
      0.213442877
    ],
    [
      1599835820805,
      0.212256983
    ],
    [
      1599835820810,
      0.212256983
    ],
    [
      1599835821090,
      0.21349062
    ],
    [
      1599835821400,
      0.212708592
    ],
    [
      1599835821705,
      0.213327855
    ],
    [
      1599835822015,
      0.21303468899999997
    ],
    [
      1599835822320,
      0.213475451
    ],
    [
      1599835822625,
      0.213880867
    ],
    [
      1599835822930,
      0.21317382199999999
    ],
    [
      1599835822945,
      0.211595953
    ],
    [
      1599835822950,
      0.211595953
    ],
    [
      1599835822975,
      0.21364615899999997
    ],
    [
      1599835822980,
      0.21364615899999997
    ],
    [
      1599835823030,
      0.212565795
    ],
    [
      1599835823035,
      0.212565795
    ],
    [
      1599835823110,
      0.213648245
    ],
    [
      1599835823425,
      0.213428885
    ],
    [
      1599835823730,
      0.21332214800000002
    ],
    [
      1599835824035,
      0.21339134899999998
    ],
    [
      1599835824340,
      0.213089898
    ],
    [
      1599835824655,
      0.213597819
    ],
    [
      1599835824965,
      0.2135382
    ],
    [
      1599835825275,
      0.21388933100000002
    ],
    [
      1599835825585,
      0.21387974899999998
    ],
    [
      1599835825890,
      0.213982239
    ],
    [
      1599835826200,
      0.213743567
    ],
    [
      1599835826510,
      0.21413666
    ],
    [
      1599835826815,
      0.214290321
    ],
    [
      1599835827120,
      0.213864475
    ],
    [
      1599835827430,
      0.214290693
    ],
    [
      1599835827735,
      0.214590847
    ],
    [
      1599835828040,
      0.214821801
    ],
    [
      1599835828345,
      0.214623809
    ],
    [
      1599835828655,
      0.214151755
    ],
    [
      1599835828960,
      0.214163601
    ],
    [
      1599835829255,
      0.215311453
    ],
    [
      1599835829260,
      0.215311453
    ],
    [
      1599835829565,
      0.21477142
    ],
    [
      1599835829870,
      0.215196162
    ],
    [
      1599835830180,
      0.21514064100000002
    ],
    [
      1599835830485,
      0.21455606800000002
    ],
    [
      1599835830790,
      0.21527655399999998
    ],
    [
      1599835831095,
      0.21540488300000002
    ],
    [
      1599835831405,
      0.215587914
    ],
    [
      1599835831710,
      0.21555294100000003
    ],
    [
      1599835832015,
      0.21558404
    ],
    [
      1599835832320,
      0.216077611
    ],
    [
      1599835832630,
      0.215915665
    ],
    [
      1599835832940,
      0.216162264
    ],
    [
      1599835833250,
      0.216367647
    ],
    [
      1599835833555,
      0.216866329
    ],
    [
      1599835833610,
      0.215853825
    ],
    [
      1599835833675,
      0.216856658
    ],
    [
      1599835833990,
      0.216584787
    ],
    [
      1599835834290,
      0.216358259
    ],
    [
      1599835834595,
      0.216829002
    ],
    [
      1599835834905,
      0.21698395899999998
    ],
    [
      1599835835145,
      0.218004212
    ],
    [
      1599835835455,
      0.217821658
    ],
    [
      1599835835760,
      0.218251362
    ],
    [
      1599835836070,
      0.218222305
    ],
    [
      1599835836380,
      0.21836622100000003
    ],
    [
      1599835836685,
      0.218757108
    ],
    [
      1599835836825,
      0.217626318
    ],
    [
      1599835836830,
      0.217626318
    ],
    [
      1599835836880,
      0.218850195
    ],
    [
      1599835837185,
      0.21868179699999998
    ],
    [
      1599835837495,
      0.219014347
    ],
    [
      1599835837530,
      0.217714518
    ],
    [
      1599835837545,
      0.216543913
    ],
    [
      1599835837595,
      0.218281403
    ],
    [
      1599835837660,
      0.219604701
    ],
    [
      1599835837690,
      0.21756529800000002
    ],
    [
      1599835837695,
      0.21756529800000002
    ],
    [
      1599835837810,
      0.219139755
    ],
    [
      1599835837830,
      0.217736259
    ],
    [
      1599835837840,
      0.218821853
    ],
    [
      1599835837845,
      0.218821853
    ],
    [
      1599835837855,
      0.220156237
    ],
    [
      1599835837860,
      0.220156237
    ],
    [
      1599835837920,
      0.21898067
    ],
    [
      1599835838015,
      0.21782860199999998
    ],
    [
      1599835838020,
      0.21782860199999998
    ],
    [
      1599835838055,
      0.21887411199999998
    ],
    [
      1599835838125,
      0.216975853
    ],
    [
      1599835838150,
      0.21855776
    ],
    [
      1599835838180,
      0.219806403
    ],
    [
      1599835838200,
      0.218597144
    ],
    [
      1599835838215,
      0.216813356
    ],
    [
      1599835838230,
      0.218153268
    ],
    [
      1599835838235,
      0.218153268
    ],
    [
      1599835838250,
      0.219326451
    ],
    [
      1599835838295,
      0.22047314
    ],
    [
      1599835838300,
      0.22047314
    ],
    [
      1599835838335,
      0.21808831399999998
    ],
    [
      1599835838380,
      0.21986804899999998
    ],
    [
      1599835838510,
      0.218828663
    ],
    [
      1599835838540,
      0.21766467399999997
    ],
    [
      1599835838545,
      0.21766467399999997
    ],
    [
      1599835838580,
      0.21916708399999998
    ],
    [
      1599835838890,
      0.21892949899999997
    ],
    [
      1599835839065,
      0.220151842
    ],
    [
      1599835839070,
      0.220151842
    ],
    [
      1599835839100,
      0.21899096699999998
    ],
    [
      1599835839405,
      0.219552487
    ],
    [
      1599835839710,
      0.219142795
    ],
    [
      1599835840020,
      0.218919203
    ],
    [
      1599835840325,
      0.219706848
    ],
    [
      1599835840630,
      0.219576553
    ],
    [
      1599835840935,
      0.219667941
    ],
    [
      1599835841245,
      0.21952644
    ],
    [
      1599835841555,
      0.220280096
    ],
    [
      1599835841860,
      0.219638571
    ],
    [
      1599835842165,
      0.22025153
    ],
    [
      1599835842470,
      0.220848918
    ],
    [
      1599835842495,
      0.219581902
    ],
    [
      1599835842505,
      0.22061570000000003
    ],
    [
      1599835842510,
      0.22061570000000003
    ],
    [
      1599835842815,
      0.220060363
    ],
    [
      1599835843120,
      0.220816791
    ],
    [
      1599835843425,
      0.22078856800000002
    ],
    [
      1599835843730,
      0.220323712
    ],
    [
      1599835844035,
      0.22030291
    ],
    [
      1599835844340,
      0.22061097600000001
    ]
  ]
}

